^C:\USERS\VICTOR\DOCUMENTS\ADVENTURES\PEWPEWPEW GAME\PEWPEWPEW GAME\PEWPEWPEW GAME\PEWPEWPEW GAME\PEWPEWPEW GAME\RELEASE\ABILITIESMANAGER.OBJ|C:\USERS\VICTOR\DOCUMENTS\ADVENTURES\PEWPEWPEW GAME\PEWPEWPEW GAME\PEWPEWPEW GAME\PEWPEWPEW GAME\PEWPEWPEW GAME\RELEASE\ANIMATIONMANAGER.OBJ|C:\USERS\VICTOR\DOCUMENTS\ADVENTURES\PEWPEWPEW GAME\PEWPEWPEW GAME\PEWPEWPEW GAME\PEWPEWPEW GAME\PEWPEWPEW GAME\RELEASE\ARCHER.OBJ|C:\USERS\VICTOR\DOCUMENTS\ADVENTURES\PEWPEWPEW GAME\PEWPEWPEW GAME\PEWPEWPEW GAME\PEWPEWPEW GAME\PEWPEWPEW GAME\RELEASE\AUDIOMANAGER.OBJ|C:\USERS\VICTOR\DOCUMENTS\ADVENTURES\PEWPEWPEW GAME\PEWPEWPEW GAME\PEWPEWPEW GAME\PEWPEWPEW GAME\PEWPEWPEW GAME\RELEASE\CLIENTCODE.OBJ|C:\USERS\VICTOR\DOCUMENTS\ADVENTURES\PEWPEWPEW GAME\PEWPEWPEW GAME\PEWPEWPEW GAME\PEWPEWPEW GAME\PEWPEWPEW GAME\RELEASE\DRAWGAMETOSCREEN.OBJ|C:\USERS\VICTOR\DOCUMENTS\ADVENTURES\PEWPEWPEW GAME\PEWPEWPEW GAME\PEWPEWPEW GAME\PEWPEWPEW GAME\PEWPEWPEW GAME\RELEASE\ENEMIES.OBJ|C:\USERS\VICTOR\DOCUMENTS\ADVENTURES\PEWPEWPEW GAME\PEWPEWPEW GAME\PEWPEWPEW GAME\PEWPEWPEW GAME\PEWPEWPEW GAME\RELEASE\GLOBALVARIABLES.OBJ|C:\USERS\VICTOR\DOCUMENTS\ADVENTURES\PEWPEWPEW GAME\PEWPEWPEW GAME\PEWPEWPEW GAME\PEWPEWPEW GAME\PEWPEWPEW GAME\RELEASE\HUDMANAGER.OBJ|C:\USERS\VICTOR\DOCUMENTS\ADVENTURES\PEWPEWPEW GAME\PEWPEWPEW GAME\PEWPEWPEW GAME\PEWPEWPEW GAME\PEWPEWPEW GAME\RELEASE\MAINMENUELEMENTS.OBJ|C:\USERS\VICTOR\DOCUMENTS\ADVENTURES\PEWPEWPEW GAME\PEWPEWPEW GAME\PEWPEWPEW GAME\PEWPEWPEW GAME\PEWPEWPEW GAME\RELEASE\MAPGENERATOR.OBJ|C:\USERS\VICTOR\DOCUMENTS\ADVENTURES\PEWPEWPEW GAME\PEWPEWPEW GAME\PEWPEWPEW GAME\PEWPEWPEW GAME\PEWPEWPEW GAME\RELEASE\NPC.OBJ|C:\USERS\VICTOR\DOCUMENTS\ADVENTURES\PEWPEWPEW GAME\PEWPEWPEW GAME\PEWPEWPEW GAME\PEWPEWPEW GAME\PEWPEWPEW GAME\RELEASE\PEWPEWPEW GAME.OBJ|C:\USERS\VICTOR\DOCUMENTS\ADVENTURES\PEWPEWPEW GAME\PEWPEWPEW GAME\PEWPEWPEW GAME\PEWPEWPEW GAME\PEWPEWPEW GAME\RELEASE\PLAYER.OBJ|C:\USERS\VICTOR\DOCUMENTS\ADVENTURES\PEWPEWPEW GAME\PEWPEWPEW GAME\PEWPEWPEW GAME\PEWPEWPEW GAME\PEWPEWPEW GAME\RELEASE\PROCESSEVENTS.OBJ|C:\USERS\VICTOR\DOCUMENTS\ADVENTURES\PEWPEWPEW GAME\PEWPEWPEW GAME\PEWPEWPEW GAME\PEWPEWPEW GAME\PEWPEWPEW GAME\RELEASE\RECEIVEUPDATEFROMSERVER.OBJ|C:\USERS\VICTOR\DOCUMENTS\ADVENTURES\PEWPEWPEW GAME\PEWPEWPEW GAME\PEWPEWPEW GAME\PEWPEWPEW GAME\PEWPEWPEW GAME\RELEASE\ROGUE.OBJ|C:\USERS\VICTOR\DOCUMENTS\ADVENTURES\PEWPEWPEW GAME\PEWPEWPEW GAME\PEWPEWPEW GAME\PEWPEWPEW GAME\PEWPEWPEW GAME\RELEASE\SCROLLVIEW.OBJ|C:\USERS\VICTOR\DOCUMENTS\ADVENTURES\PEWPEWPEW GAME\PEWPEWPEW GAME\PEWPEWPEW GAME\PEWPEWPEW GAME\PEWPEWPEW GAME\RELEASE\SERVERCODE.OBJ|C:\USERS\VICTOR\DOCUMENTS\ADVENTURES\PEWPEWPEW GAME\PEWPEWPEW GAME\PEWPEWPEW GAME\PEWPEWPEW GAME\PEWPEWPEW GAME\RELEASE\SHIELDGUY.OBJ|C:\USERS\VICTOR\DOCUMENTS\ADVENTURES\PEWPEWPEW GAME\PEWPEWPEW GAME\PEWPEWPEW GAME\PEWPEWPEW GAME\PEWPEWPEW GAME\RELEASE\STDAFX.OBJ|C:\USERS\VICTOR\DOCUMENTS\ADVENTURES\PEWPEWPEW GAME\PEWPEWPEW GAME\PEWPEWPEW GAME\PEWPEWPEW GAME\PEWPEWPEW GAME\RELEASE\TALLMOUNTAINGEM.OBJ|C:\USERS\VICTOR\DOCUMENTS\ADVENTURES\PEWPEWPEW GAME\PEWPEWPEW GAME\PEWPEWPEW GAME\PEWPEWPEW GAME\PEWPEWPEW GAME\RELEASE\UPDATELOCALGAME.OBJ|C:\USERS\VICTOR\DOCUMENTS\ADVENTURES\PEWPEWPEW GAME\PEWPEWPEW GAME\PEWPEWPEW GAME\PEWPEWPEW GAME\PEWPEWPEW GAME\RELEASE\UPDATETIMERS.OBJ|C:\USERS\VICTOR\DOCUMENTS\ADVENTURES\PEWPEWPEW GAME\PEWPEWPEW GAME\PEWPEWPEW GAME\PEWPEWPEW GAME\PEWPEWPEW GAME\RELEASE\UPDATETOCLIENT.OBJ|C:\USERS\VICTOR\DOCUMENTS\ADVENTURES\PEWPEWPEW GAME\PEWPEWPEW GAME\PEWPEWPEW GAME\PEWPEWPEW GAME\PEWPEWPEW GAME\RELEASE\UPDATETOSERVER.OBJ|C:\USERS\VICTOR\DOCUMENTS\ADVENTURES\PEWPEWPEW GAME\PEWPEWPEW GAME\PEWPEWPEW GAME\PEWPEWPEW GAME\PEWPEWPEW GAME\RELEASE\WIZARD.OBJ
/ERRORREPORT:PROMPT /OUT:"C:\Users\Victor\Documents\Adventures\PewPewPew Game\PewPewPew Game\PewPewPew Game\PewPewPew Game\Release\PewPewPew Game.exe" /INCREMENTAL:NO /NOLOGO /LIBPATH:"C:\Users\Victor\Documents\Adventures\PewPewPew Game\PewPewPew Game\PewPewPew Game\PewPewPew Game\PewPewPew Game\SFML\SFML-2.2\lib" /LIBPATH:"C:\Users\Victor\Documents\Adventures\PewPewPew Game\PewPewPew Game\PewPewPew Game\PewPewPew Game\SFML\SFML-2.2\lib" "sfml-graphics.lib" "sfml-system.lib" "sfml-network.lib" "sfml-window.lib" "sfml-audio.lib" kernel32.lib user32.lib gdi32.lib winspool.lib comdlg32.lib advapi32.lib shell32.lib ole32.lib oleaut32.lib uuid.lib odbc32.lib odbccp32.lib /MANIFEST /ManifestFile:"Release\PewPewPew Game.exe.intermediate.manifest" /MANIFESTUAC:"level='asInvoker' uiAccess='false'" /DEBUG /PDB:"C:\Users\Victor\Documents\Adventures\PewPewPew Game\PewPewPew Game\PewPewPew Game\PewPewPew Game\Release\PewPewPew Game.pdb" /SUBSYSTEM:CONSOLE /OPT:REF /OPT:ICF /LTCG /TLBID:1 /DYNAMICBASE /NXCOMPAT /IMPLIB:"C:\Users\Victor\Documents\Adventures\PewPewPew Game\PewPewPew Game\PewPewPew Game\PewPewPew Game\Release\PewPewPew Game.lib" /MACHINE:X86 Release\abilitiesManager.obj
Release\animationManager.obj
Release\audioManager.obj
Release\archer.obj
Release\rogue.obj
Release\shieldGuy.obj
Release\wizard.obj
Release\clientCode.obj
Release\drawGameToScreen.obj
Release\enemies.obj
Release\globalVariables.obj
Release\HUDManager.obj
Release\mainMenuElements.obj
Release\mapGenerator.obj
Release\NPC.obj
"Release\PewPewPew Game.obj"
Release\player.obj
Release\processEvents.obj
Release\receiveUpdateFromServer.obj
Release\scrollView.obj
Release\serverCode.obj
Release\stdafx.obj
Release\tallMountainGem.obj
Release\updateLocalGame.obj
Release\updateTimers.obj
Release\updateToClient.obj
Release\updateToServer.obj
